{
"imgs":[
{"id":"1", "src":"src/images/8.jpg"},
{"id":"2", "src":"src/images/1.jpg"},
{"id":"3", "src":"src/images/2.jpg"},
{"id":"4", "src":"src/images/3.jpg"},
{"id":"5", "src":"src/images/4.jpg"},
{"id":"6", "src":"src/images/5.jpg"},
{"id":"7", "src":"src/images/6.jpg"},
{"id":"8", "src":"src/images/7.jpg"},
{"id":"2", "src":"src/images/1.jpg"},
{"id":"3", "src":"src/images/2.jpg"},
{"id":"4", "src":"src/images/3.jpg"},
{"id":"5", "src":"src/images/4.jpg"},
{"id":"6", "src":"src/images/5.jpg"},
{"id":"7", "src":"src/images/6.jpg"},
{"id":"8", "src":"src/images/7.jpg"},
{"id":"1", "src":"src/images/8.jpg"}
] 
}